{
  "Actor": {
    "types": ["character", "npc", "unit"],
    "templates": {
      "base": {
        "health": {
          "value": 10,
          "min": 0,
          "max": 10
        },
        "power": {
          "value": 5,
          "min": 0,
          "max": 5
        },
        "biography": ""
      }
    },
    "unit": {
      "templates": ["base"],
        "type": {
          "texte" : ["Infanterie Légère", "Infanterie Moyenne", "Infanterie lourde", "Cavalerie Légère", "Général", "Cavalerie", "Cavalerie Lourde", "Démons", "Artillerie"],
          "valeur": 0
        },
        "mouvement": 4,
        "équipement": {
          "texte": ["Piquiers offensifs", "Piquiers défensif", "Piques", "Epéistes", "Infanterie d'impact", "Armes lourdes", "Lances légère", "Lance", "Lance de Chevalier", "Elephants", "Démons", "Arc", "Javelot", "Arbalète", "Arme à feu"],
          "diminutif":  ["SpO*", "SpD", "Pk*", "Sw", "lp*", "HW", "LL", "L*", "Kn*", "El", "Dm*"],
          "valeur": 0
        },
        "puissance": 4,
        "portéeDeCommandement": 6,
        "disciplinée": false,
        "protection": {
          "texte": ["Sans protection", "Protégé", "En armure"],
          "diminutif": ["U", "P", "A"],
          "valeur": 0
        },
        "qualité": {
          "texte": ["Pauvre", "Ordinaire", "Supérieur", "Elite"],
          "diminutif": ["P", "O", "S", "E"],
          "valeur": 0
        },
        "moral": {
          "texte" : ["Complet", "Désorganisé", "Fragmenté", "Brisé"],
          "valeur": 0
        },
        "munitions": {
          "texte" : ["Normal", "Faible", "A sec"],
          "valeur": 0
        },
        "origine": {
          "texte" : ["Cheliax", "Nidal", "Molthune", "Nirmathas", "Isger", "Druma", "Montagne des 5 rois", "Taldor", "Varisie"],
          "valeur": 0
        },
        "Unité": "",
        "SousUnité": ""
      },
    "character": {
      "templates": ["base"],
      "attributes": {
        "level": {
          "value": 1
        }
      },
      "abilities": {
        "str": {
          "value": 10
        },
        "dex": {
          "value": 10
        },
        "con": {
          "value": 10
        },
        "int": {
          "value": 10
        },
        "wis": {
          "value": 10
        },
        "cha": {
          "value": 10
        }
      }
    },
    "npc": {
      "templates": ["base"],
      "cr": 0
    }
  },
  "Item": {
    "types": ["item", "feature", "spell"],
    "templates": {
      "base": {
        "description": ""
      }
    },
    "item": {
      "templates": ["base"],
      "quantity": 1,
      "weight": 0,
      "formula": "d20 + @str.mod + ceil(@lvl / 2)"
    },
    "feature": {
      "templates": ["base"]
    },
    "spell": {
      "templates": ["base"],
      "spellLevel": 1
    }
  }
}
